// +heroku goVersion go1.13
module github.com/pennz/antlr_lifestyle

go 1.13

require (
	github.com/gin-gonic/gin v0.0.0-20150626140855-4cc2de6207f4
	github.com/go-resty/resty/v2 v2.2.0
	github.com/heroku/x v0.0.0-20171004170240-705849e307dd
	github.com/lib/pq v1.3.0
	github.com/manucorporat/sse v0.0.0-20150604091100-c142f0f1baea // indirect
	github.com/mattn/go-colorable v0.0.0-20150625154642-40e4aedc8fab // indirect
	github.com/mattn/go-isatty v0.0.0-20150814002629-7fcbc72f853b // indirect
	github.com/stretchr/testify v1.3.0
	golang.org/x/net v0.0.0-20200226121028-0de0cce0169b // indirect
	gopkg.in/bluesuncorp/validator.v5 v5.9.1 // indirect
)
